Lab2/simulation/qsim/LogicalStep_Lab2.msim.vcd
$comment
	File created using the following command:
		vcd file LogicalStep_Lab2.msim.vcd -direction
$end
$date
	Fri Jan 31 16:40:44 2020
$end
$version
	ModelSim Version 10.4b
$end
$timescale
	1ps
$end

$scope module LogicalStep_Lab2_top_vlg_vec_tst $end
$var reg 1 ! clkin_50 $end
$var reg 4 " pb [3:0] $end
$var reg 8 # sw [7:0] $end
$var wire 1 $ leds [7] $end
$var wire 1 % leds [6] $end
$var wire 1 & leds [5] $end
$var wire 1 ' leds [4] $end
$var wire 1 ( leds [3] $end
$var wire 1 ) leds [2] $end
$var wire 1 * leds [1] $end
$var wire 1 + leds [0] $end
$var wire 1 , seg7_char1 $end
$var wire 1 - seg7_char2 $end
$var wire 1 . seg7_data [6] $end
$var wire 1 / seg7_data [5] $end
$var wire 1 0 seg7_data [4] $end
$var wire 1 1 seg7_data [3] $end
$var wire 1 2 seg7_data [2] $end
$var wire 1 3 seg7_data [1] $end
$var wire 1 4 seg7_data [0] $end

$scope module i1 $end
$var wire 1 5 gnd $end
$var wire 1 6 vcc $end
$var wire 1 7 unknown $end
$var tri1 1 8 devclrn $end
$var tri1 1 9 devpor $end
$var tri1 1 : devoe $end
$var wire 1 ; ~QUARTUS_CREATED_GND~I_combout $end
$var wire 1 < ~QUARTUS_CREATED_UNVM~~busy $end
$var wire 1 = ~QUARTUS_CREATED_ADC1~~eoc $end
$var wire 1 > seg7_data[1]~output_o $end
$var wire 1 ? seg7_data[5]~output_o $end
$var wire 1 @ seg7_data[6]~output_o $end
$var wire 1 A leds[0]~output_o $end
$var wire 1 B leds[1]~output_o $end
$var wire 1 C leds[2]~output_o $end
$var wire 1 D leds[3]~output_o $end
$var wire 1 E leds[4]~output_o $end
$var wire 1 F leds[5]~output_o $end
$var wire 1 G leds[6]~output_o $end
$var wire 1 H leds[7]~output_o $end
$var wire 1 I seg7_data[0]~output_o $end
$var wire 1 J seg7_data[2]~output_o $end
$var wire 1 K seg7_data[3]~output_o $end
$var wire 1 L seg7_data[4]~output_o $end
$var wire 1 M seg7_char1~output_o $end
$var wire 1 N seg7_char2~output_o $end
$var wire 1 O pb[0]~input_o $end
$var wire 1 P pb[1]~input_o $end
$var wire 1 Q pb[2]~input_o $end
$var wire 1 R INST1|Mux0~1_combout $end
$var wire 1 S pb[3]~input_o $end
$var wire 1 T sw[7]~input_o $end
$var wire 1 U INST1|Mux7~0_combout $end
$var wire 1 V INST1|Mux0~2_combout $end
$var wire 1 W sw[5]~input_o $end
$var wire 1 X INST1|Mux2~0_combout $end
$var wire 1 Y INST1|Mux0~0_combout $end
$var wire 1 Z sw[3]~input_o $end
$var wire 1 [ sw[2]~input_o $end
$var wire 1 \ sw[6]~input_o $end
$var wire 1 ] sw[1]~input_o $end
$var wire 1 ^ sw[4]~input_o $end
$var wire 1 _ sw[0]~input_o $end
$var wire 1 ` Add0~1 $end
$var wire 1 a Add0~3 $end
$var wire 1 b Add0~5 $end
$var wire 1 c Add0~7 $end
$var wire 1 d Add0~8_combout $end
$var wire 1 e INST1|Mux3~0_combout $end
$var wire 1 f INST1|Mux1~0_combout $end
$var wire 1 g INST3|Mux5~0_combout $end
$var wire 1 h Add0~4_combout $end
$var wire 1 i INST1|Mux5~0_combout $end
$var wire 1 j Add0~2_combout $end
$var wire 1 k INST1|Mux6~0_combout $end
$var wire 1 l INST5|Mux6~4_combout $end
$var wire 1 m Add0~6_combout $end
$var wire 1 n INST5|Mux4~0_combout $end
$var wire 1 o INST1|Mux4~0_combout $end
$var wire 1 p Add0~0_combout $end
$var wire 1 q INST1|Mux7~1_combout $end
$var wire 1 r INST2|Mux5~0_combout $end
$var wire 1 s clkin_50~input_o $end
$var wire 1 t clkin_50~inputclkctrl_outclk $end
$var wire 1 u INST4|clk_proc:COUNT[0]~0_combout $end
$var wire 1 v INST4|clk_proc:COUNT[0]~q $end
$var wire 1 w INST4|clk_proc:COUNT[1]~1_combout $end
$var wire 1 x INST4|clk_proc:COUNT[1]~q $end
$var wire 1 y INST4|clk_proc:COUNT[1]~2 $end
$var wire 1 z INST4|clk_proc:COUNT[2]~1_combout $end
$var wire 1 { INST4|clk_proc:COUNT[2]~q $end
$var wire 1 | INST4|clk_proc:COUNT[2]~2 $end
$var wire 1 } INST4|clk_proc:COUNT[3]~1_combout $end
$var wire 1 ~ INST4|clk_proc:COUNT[3]~q $end
$var wire 1 !! INST4|clk_proc:COUNT[3]~2 $end
$var wire 1 "! INST4|clk_proc:COUNT[4]~1_combout $end
$var wire 1 #! INST4|clk_proc:COUNT[4]~q $end
$var wire 1 $! INST4|clk_proc:COUNT[4]~2 $end
$var wire 1 %! INST4|clk_proc:COUNT[5]~1_combout $end
$var wire 1 &! INST4|clk_proc:COUNT[5]~q $end
$var wire 1 '! INST4|clk_proc:COUNT[5]~2 $end
$var wire 1 (! INST4|clk_proc:COUNT[6]~1_combout $end
$var wire 1 )! INST4|clk_proc:COUNT[6]~q $end
$var wire 1 *! INST4|clk_proc:COUNT[6]~2 $end
$var wire 1 +! INST4|clk_proc:COUNT[7]~1_combout $end
$var wire 1 ,! INST4|clk_proc:COUNT[7]~q $end
$var wire 1 -! INST4|clk_proc:COUNT[7]~2 $end
$var wire 1 .! INST4|clk_proc:COUNT[8]~1_combout $end
$var wire 1 /! INST4|clk_proc:COUNT[8]~q $end
$var wire 1 0! INST4|clk_proc:COUNT[8]~2 $end
$var wire 1 1! INST4|clk_proc:COUNT[9]~1_combout $end
$var wire 1 2! INST4|clk_proc:COUNT[9]~q $end
$var wire 1 3! INST4|clk_proc:COUNT[9]~2 $end
$var wire 1 4! INST4|clk_proc:COUNT[10]~1_combout $end
$var wire 1 5! INST4|clk_proc:COUNT[10]~q $end
$var wire 1 6! INST4|DOUT_TEMP[1]~0_combout $end
$var wire 1 7! INST3|Mux1~0_combout $end
$var wire 1 8! INST2|Mux1~0_combout $end
$var wire 1 9! INST4|DOUT_TEMP[5]~1_combout $end
$var wire 1 :! INST2|Mux0~0_combout $end
$var wire 1 ;! INST3|Mux0~0_combout $end
$var wire 1 <! INST4|DOUT_TEMP[6]~2_combout $end
$var wire 1 =! INST5|Mux7~0_combout $end
$var wire 1 >! INST5|Mux7~1_combout $end
$var wire 1 ?! INST5|Mux7~2_combout $end
$var wire 1 @! INST5|Mux6~5_combout $end
$var wire 1 A! INST5|Mux6~6_combout $end
$var wire 1 B! INST5|Mux6~8_combout $end
$var wire 1 C! INST5|Mux6~10_combout $end
$var wire 1 D! INST5|Mux6~7_combout $end
$var wire 1 E! INST5|Mux6~11_combout $end
$var wire 1 F! INST5|Mux6~9_combout $end
$var wire 1 G! INST5|Mux5~7_combout $end
$var wire 1 H! INST5|Mux5~5_combout $end
$var wire 1 I! INST5|Mux5~4_combout $end
$var wire 1 J! INST5|Mux5~6_combout $end
$var wire 1 K! INST5|Mux4~2_combout $end
$var wire 1 L! INST5|Mux4~3_combout $end
$var wire 1 M! INST5|Mux4~1_combout $end
$var wire 1 N! INST5|Mux3~0_combout $end
$var wire 1 O! INST5|Mux3~1_combout $end
$var wire 1 P! INST5|Mux2~0_combout $end
$var wire 1 Q! INST3|Mux6~0_combout $end
$var wire 1 R! INST2|Mux6~0_combout $end
$var wire 1 S! INST4|DOUT[0]~0_combout $end
$var wire 1 T! INST2|Mux4~0_combout $end
$var wire 1 U! INST3|Mux4~0_combout $end
$var wire 1 V! INST4|DOUT[2]~2_combout $end
$var wire 1 W! INST2|Mux3~0_combout $end
$var wire 1 X! INST3|Mux3~0_combout $end
$var wire 1 Y! INST4|DOUT[3]~3_combout $end
$var wire 1 Z! INST2|Mux2~0_combout $end
$var wire 1 [! INST3|Mux2~0_combout $end
$var wire 1 \! INST4|DOUT[4]~4_combout $end
$upscope $end
$upscope $end
$enddefinitions $end
#0
$dumpvars
0!
b1111 "
b0 #
0+
0*
0)
0(
0'
0&
0%
0$
1,
0-
14
z3
12
11
10
z/
0.
05
16
x7
18
19
1:
0;
z<
z=
z>
z?
0@
0A
0B
0C
0D
0E
0F
0G
0H
1I
1J
1K
1L
1M
0N
1O
1P
1Q
1R
1S
0T
0U
0V
0W
0X
1Y
0Z
0[
0\
0]
0^
0_
0`
1a
0b
1c
0d
0e
0f
0g
0h
0i
0j
0k
1l
0m
0n
0o
0p
0q
0r
0s
0t
1u
0v
0w
0x
0y
0z
0{
1|
0}
0~
0!!
0"!
0#!
1$!
0%!
0&!
0'!
0(!
0)!
1*!
0+!
0,!
0-!
0.!
0/!
10!
01!
02!
03!
04!
05!
16!
07!
08!
19!
0:!
0;!
0<!
0=!
0>!
0?!
0@!
1A!
1B!
1C!
0D!
1E!
0F!
1G!
1H!
0I!
0J!
1K!
1L!
0M!
0N!
0O!
1P!
0Q!
0R!
0S!
0T!
0U!
0V!
0W!
0X!
0Y!
0Z!
0[!
0\!
$end
#16000
b1 #
1_
1q
1p
1Z!
1W!
1R!
18!
1>!
#32000
b11 #
b10 #
1]
0_
1k
1j
0q
0p
0Z!
0W!
1T!
0R!
1:!
0>!
#48000
b11 #
1_
1q
1p
1Z!
0T!
1>!
#64000
b111 #
b101 #
b100 #
1[
0]
0_
1i
1h
0k
0j
0q
0p
1W!
1R!
08!
0>!
#80000
b101 #
1_
1q
1p
0W!
0R!
1r
1>!
#96000
b111 #
b110 #
1]
0_
1k
1j
0q
0p
0Z!
0>!
#112000
b111 #
1_
1q
1p
1Z!
1W!
0:!
18!
0r
1>!
#128000
b1111 #
b1011 #
b1001 #
b1000 #
1Z
0[
0]
0_
0K!
1o
1m
0i
0h
0k
0j
0q
0p
0Z!
0W!
1:!
08!
0>!
#144000
b1001 #
1_
1q
1p
1Z!
1>!
#160000
b1011 #
b1010 #
1]
0_
1k
1j
0q
0p
0Z!
1W!
0>!
#176000
b1011 #
1_
1q
1p
0W!
1R!
1r
1>!
#192000
b1111 #
b1101 #
b1100 #
1[
0]
0_
1i
1h
0k
0j
0q
0p
1T!
18!
0>!
#208000
b1101 #
1_
1q
1p
0T!
0r
1>!
#224000
b1111 #
b1110 #
1]
0_
1k
1j
0q
0p
1T!
0R!
08!
1r
0>!
#240000
b1111 #
1_
1q
1p
1W!
1>!
#256000
b11111 #
b10111 #
b10011 #
b10001 #
b10000 #
1^
0Z
0[
0]
0_
1e
1K!
0o
0m
0i
0h
0k
0j
0q
1[!
1X!
1Q!
17!
0W!
0T!
0:!
0r
1\!
1Y!
1S!
09!
0?
0I
0K
0L
00
01
04
0/
#272000
b10001 #
1_
1q
1`
0p
1Z!
1W!
1R!
18!
1j
0>!
#288000
b10011 #
b10010 #
1]
0_
1k
0a
0j
0q
0`
1p
0Z!
0W!
1T!
0R!
1:!
1h
1a
1j
1>!
0h
#304000
b10011 #
1_
1q
1`
0p
1Z!
0T!
0a
0j
0>!
1h
#320000
b10111 #
b10101 #
b10100 #
1[
0]
0_
1i
1b
0h
0k
1a
1j
0q
0`
1p
1W!
1R!
08!
1m
0b
1h
0j
1>!
0m
#336000
b10101 #
1_
1q
1`
0p
0W!
0R!
1r
1j
0>!
#352000
b10111 #
b10110 #
1]
0_
1k
0a
0j
0q
0`
1p
0Z!
1b
0h
1a
1j
1>!
1m
0b
1h
0m
#368000
b10111 #
1_
1q
1`
0p
1Z!
1W!
0:!
18!
0r
0a
0j
0>!
1b
0h
1m
#384000
b11111 #
b11011 #
b11001 #
b11000 #
1Z
0[
0]
0_
0K!
1o
0c
0m
0i
0b
1h
0k
1a
1j
0q
0`
1p
0Z!
0W!
1:!
08!
1d
1c
1m
0h
0j
1>!
0d
#400000
b11001 #
1_
1q
1`
0p
1Z!
1j
0>!
#416000
b11011 #
b11010 #
1]
0_
1k
0a
0j
0q
0`
1p
0Z!
1W!
1h
1a
1j
1>!
0h
#432000
b11011 #
1_
1q
1`
0p
0W!
1R!
1r
0a
0j
0>!
1h
#448000
b11111 #
b11101 #
b11100 #
1[
0]
0_
1i
1b
0h
0k
1a
1j
0q
0`
1p
1T!
18!
0c
0m
0b
1h
0j
1>!
1d
1c
1m
0d
#464000
b11101 #
1_
1q
1`
0p
0T!
0r
1j
0>!
#480000
b11111 #
b11110 #
1]
0_
1k
0a
0j
0q
0`
1p
1T!
0R!
08!
1r
1b
0h
1a
1j
1>!
0c
0m
0b
1h
1d
1c
1m
0d
#496000
b11111 #
1_
1q
1`
0p
1W!
0a
0j
0>!
1b
0h
0c
0m
1d
#512000
b111111 #
b101111 #
b100111 #
b100011 #
b100001 #
b100000 #
1W
0^
0Z
0[
0]
0_
1X
0e
0`
1K!
0o
1c
1m
0i
0b
1h
0k
0q
0[!
0X!
1U!
0Q!
1;!
1a
1j
0W!
0T!
0:!
0r
0d
0m
0\!
0Y!
1V!
0S!
0h
1<!
z@
1I
0J
1K
1L
10
11
02
14
z.
#528000
b100001 #
1_
1q
1p
1Z!
1W!
1R!
18!
1>!
#544000
b100011 #
b100010 #
1]
0_
1k
0a
0j
0q
0p
0Z!
0W!
1T!
0R!
1:!
1h
0>!
#560000
b100011 #
1_
1q
1p
1Z!
0T!
1>!
#576000
b100111 #
b100101 #
b100100 #
1[
0]
0_
1i
1b
0h
0k
1a
1j
0q
0p
1W!
1R!
08!
1m
0b
1h
0>!
0m
#592000
b100101 #
1_
1q
1p
0W!
0R!
1r
1>!
#608000
b100111 #
b100110 #
1]
0_
1k
0a
0j
0q
0p
0Z!
1b
0h
0>!
1m
#624000
b100111 #
1_
1q
1p
1Z!
1W!
0:!
18!
0r
1>!
#640000
b101111 #
b101011 #
b101001 #
b101000 #
1Z
0[
0]
0_
0K!
1o
0c
0m
0i
0b
1h
0k
1a
1j
0q
0p
0Z!
0W!
1:!
08!
1d
1c
1m
0h
0>!
0d
#656000
b101001 #
1_
1q
1p
1Z!
1>!
#672000
b101011 #
b101010 #
1]
0_
1k
0a
0j
0q
0p
0Z!
1W!
1h
0>!
#688000
b101011 #
1_
1q
1p
0W!
1R!
1r
1>!
#704000
b101111 #
b101101 #
b101100 #
1[
0]
0_
1i
1b
0h
0k
1a
1j
0q
0p
1T!
18!
0c
0m
0b
1h
0>!
1d
1c
1m
0d
#720000
b101101 #
1_
1q
1p
0T!
0r
1>!
#736000
b101111 #
b101110 #
1]
0_
1k
0a
0j
0q
0p
1T!
0R!
08!
1r
1b
0h
0>!
0c
0m
1d
#752000
b101111 #
1_
1q
1p
1W!
1>!
#768000
b111111 #
b110111 #
b110011 #
b110001 #
b110000 #
1^
0Z
0[
0]
0_
1e
1K!
0o
1c
1m
0i
0b
1h
0k
1a
1j
0q
1[!
0U!
0W!
0T!
0:!
0r
0d
0m
0h
1\!
0V!
1J
0L
00
12
#784000
b110001 #
1_
1q
1`
0p
1Z!
1W!
1R!
18!
0a
0j
0>!
1h
#800000
b110011 #
b110010 #
1]
0_
1k
1j
0q
0`
1p
0Z!
0W!
1T!
0R!
1:!
0j
1>!
#816000
b110011 #
1_
1q
1`
0p
1Z!
0T!
1j
0>!
#832000
b110111 #
b110101 #
b110100 #
1[
0]
0_
1i
1b
0h
0k
0j
0q
0`
1p
1W!
1R!
08!
1m
1a
1j
1>!
0b
1h
0m
#848000
b110101 #
1_
1q
1`
0p
0W!
0R!
1r
0a
0j
0>!
1b
0h
1m
#864000
b110111 #
b110110 #
1]
0_
1k
1j
0q
0`
1p
0Z!
0j
1>!
#880000
b110111 #
1_
1q
1`
0p
1Z!
1W!
0:!
18!
0r
1j
0>!
#896000
b111111 #
b111011 #
b111001 #
b111000 #
1Z
0[
0]
0_
0K!
1o
0c
0m
0i
0b
1h
0k
0j
0q
0`
1p
0Z!
0W!
1:!
08!
1d
1c
1m
1a
1j
1>!
0d
0h
#912000
b111001 #
1_
1q
1`
0p
1Z!
0a
0j
0>!
1h
#928000
b111011 #
b111010 #
1]
0_
1k
1j
0q
0`
1p
0Z!
1W!
0j
1>!
#944000
b111011 #
1_
1q
1`
0p
0W!
1R!
1r
1j
0>!
#960000
b111111 #
b111101 #
b111100 #
1[
0]
0_
1i
1b
0h
0k
0j
0q
0`
1p
1T!
18!
0c
0m
1a
1j
1>!
1d
0b
1h
1c
1m
0d
#976000
b111101 #
1_
1q
1`
0p
0T!
0r
0a
0j
0>!
1b
0h
0c
0m
1d
#992000
b111111 #
b111110 #
1]
0_
1k
1j
0q
0`
1p
1T!
0R!
08!
1r
0j
1>!
#999000
b111 "
b11 "
b1 "
b0 "
0S
0Q
0P
0O
0P!
1N!
0C!
0o
1n
0Y
0X
1V
0L!
0G!
0E!
0A!
0l
0R
1=!
1O!
1?!
1A
1E
1H
1G
1F
0T!
1o
0k
0i
0e
07!
0H!
1D!
0B!
1&
1%
1$
1'
1+
1M!
1D
0r
0[!
1(
19!
1J!
1F!
1B
1C
z?
0\!
z/
1)
1*
1L
10
#1008000
b111111 #
1_
1`
0p
1j
#1024000
b1111111 #
b1011111 #
b1001111 #
b1000111 #
b1000011 #
b1000001 #
b1000000 #
1\
0W
0^
0Z
0[
0]
0_
0D!
1a
0`
1c
1m
0b
1h
0j
0d
0m
#1040000
b1000001 #
1_
1p
#1056000
b1000011 #
b1000010 #
1]
0_
1j
0p
#1072000
b1000011 #
1_
1p
#1088000
b1000111 #
b1000101 #
b1000100 #
1[
0]
0_
1I!
1b
0h
0j
0p
1m
#1104000
b1000101 #
1_
1p
#1120000
b1000111 #
b1000110 #
1]
0_
1j
0p
#1136000
b1000111 #
1_
1p
#1152000
b1001111 #
b1001011 #
b1001001 #
b1001000 #
1Z
0[
0]
0_
0c
0m
0I!
0b
1h
0j
0p
1d
1c
1m
0d
#1168000
b1001001 #
1_
1p
#1184000
b1001011 #
b1001010 #
1]
0_
1j
0p
#1200000
b1001011 #
1_
1p
#1216000
b1001111 #
b1001101 #
b1001100 #
1[
0]
0_
1I!
1b
0h
0j
0p
0c
0m
1d
#1232000
b1001101 #
1_
1p
#1248000
b1001111 #
b1001110 #
1]
0_
1j
0p
#1264000
b1001111 #
1_
1p
#1280000
b1011111 #
b1010111 #
b1010011 #
b1010001 #
b1010000 #
1^
0Z
0[
0]
0_
1c
1m
0I!
0b
1h
0j
0d
0m
#1296000
b1010001 #
1_
1`
0p
1j
#1312000
b1010011 #
b1010010 #
1]
0_
0a
0j
0`
1p
1b
0h
1a
1j
1m
0b
1h
0m
#1328000
b1010011 #
1_
1`
0p
0a
0j
1b
0h
1m
#1344000
b1010111 #
b1010101 #
b1010100 #
1[
0]
0_
1I!
1h
1a
1j
0`
1p
0h
0j
#1360000
b1010101 #
1_
1`
0p
1j
#1376000
b1010111 #
b1010110 #
1]
0_
0a
0j
0`
1p
1h
1a
1j
0h
#1392000
b1010111 #
1_
1`
0p
0a
0j
1h
#1408000
b1011111 #
b1011011 #
b1011001 #
b1011000 #
1Z
0[
0]
0_
0c
0m
0I!
0h
1a
1j
0`
1p
1d
0b
1h
0j
1c
1m
0d
#1424000
b1011001 #
1_
1`
0p
1j
#1440000
b1011011 #
b1011010 #
1]
0_
0a
0j
0`
1p
1b
0h
1a
1j
0c
0m
0b
1h
1d
1c
1m
0d
#1456000
b1011011 #
1_
1`
0p
0a
0j
1b
0h
0c
0m
1d
#1472000
b1011111 #
b1011101 #
b1011100 #
1[
0]
0_
1I!
1h
1a
1j
0`
1p
0h
0j
#1488000
b1011101 #
1_
1`
0p
1j
#1504000
b1011111 #
b1011110 #
1]
0_
0a
0j
0`
1p
1h
1a
1j
0h
#1520000
b1011111 #
1_
1`
0p
0a
0j
1h
#1536000
b1111111 #
b1101111 #
b1100111 #
b1100011 #
b1100001 #
b1100000 #
1W
0^
0Z
0[
0]
0_
0`
1c
1m
0I!
0h
1a
1j
0d
0b
1h
0m
#1552000
b1100001 #
1_
1p
#1568000
b1100011 #
b1100010 #
1]
0_
1D!
0a
0j
0p
1b
0h
1m
#1584000
b1100011 #
1_
1p
#1600000
b1100111 #
b1100101 #
b1100100 #
1[
0]
0_
1I!
1h
0D!
1a
1j
0p
0h
#1616000
b1100101 #
1_
1p
#1632000
b1100111 #
b1100110 #
1]
0_
1D!
0a
0j
0p
1h
#1648000
b1100111 #
1_
1p
#1664000
b1101111 #
b1101011 #
b1101001 #
b1101000 #
1Z
0[
0]
0_
0c
0m
0I!
0h
0D!
1a
1j
0p
1d
0b
1h
1c
1m
0d
#1680000
b1101001 #
1_
1p
#1696000
b1101011 #
b1101010 #
1]
0_
1D!
0a
0j
0p
1b
0h
0c
0m
1d
#1712000
b1101011 #
1_
1p
#1728000
b1101111 #
b1101101 #
b1101100 #
1[
0]
0_
1I!
1h
0D!
1a
1j
0p
0h
#1744000
b1101101 #
1_
1p
#1760000
b1101111 #
b1101110 #
1]
0_
1D!
0a
0j
0p
1h
#1776000
b1101111 #
1_
1p
#1792000
b1111111 #
b1110111 #
b1110011 #
b1110001 #
b1110000 #
1^
0Z
0[
0]
0_
1c
1m
0I!
0h
0D!
1a
1j
0d
0b
1h
0m
#1808000
b1110001 #
1_
1`
0p
0a
0j
1b
0h
1m
#1824000
b1110011 #
b1110010 #
1]
0_
1D!
1j
0`
1p
0j
#1840000
b1110011 #
1_
1`
0p
1j
#1856000
b1110111 #
b1110101 #
b1110100 #
1[
0]
0_
1I!
1h
0D!
0j
0`
1p
1a
1j
0h
#1872000
b1110101 #
1_
1`
0p
0a
0j
1h
#1888000
b1110111 #
b1110110 #
1]
0_
1D!
1j
0`
1p
0j
#1904000
b1110111 #
1_
1`
0p
1j
#1920000
b1111111 #
b1111011 #
b1111001 #
b1111000 #
1Z
0[
0]
0_
0c
0m
0I!
0h
0D!
0j
0`
1p
1d
1a
1j
0b
1h
1c
1m
0d
#1936000
b1111001 #
1_
1`
0p
0a
0j
1b
0h
0c
0m
1d
#1952000
b1111011 #
b1111010 #
1]
0_
1D!
1j
0`
1p
0j
#1968000
b1111011 #
1_
1`
0p
1j
#1984000
b1111111 #
b1111101 #
b1111100 #
1[
0]
0_
1I!
1h
0D!
0j
0`
1p
1a
1j
0h
#2000000
b1111101 #
1_
1`
0p
0a
0j
1h
#2016000
b1111111 #
b1111110 #
1]
0_
1D!
1j
0`
1p
0j
#2032000
b1111111 #
1_
1`
0p
1j
#2048000
b11111111 #
b10111111 #
b10011111 #
b10001111 #
b10000111 #
b10000011 #
b10000001 #
b10000000 #
1T
0\
0W
0^
0Z
0[
0]
0_
0I!
0b
0D!
1a
0`
1c
1m
0h
0j
0d
#2064000
b10000001 #
1_
1p
#2080000
b10000011 #
b10000010 #
1]
0_
1j
0p
#2096000
b10000011 #
1_
1p
#2112000
b10000111 #
b10000101 #
b10000100 #
1[
0]
0_
1h
0j
0p
#2128000
b10000101 #
1_
1p
#2144000
b10000111 #
b10000110 #
1]
0_
1j
0p
#2160000
b10000111 #
1_
1p
#2176000
b10001111 #
b10001011 #
b10001001 #
b10001000 #
1Z
0[
0]
0_
0c
0m
0h
0j
0p
1d
#2192000
b10001001 #
1_
1p
#2208000
b10001011 #
b10001010 #
1]
0_
1j
0p
#2224000
b10001011 #
1_
1p
#2240000
b10001111 #
b10001101 #
b10001100 #
1[
0]
0_
1h
0j
0p
#2256000
b10001101 #
1_
1p
#2272000
b10001111 #
b10001110 #
1]
0_
1j
0p
#2288000
b10001111 #
1_
1p
#2304000
b10011111 #
b10010111 #
b10010011 #
b10010001 #
b10010000 #
1^
0Z
0[
0]
0_
1c
1m
0h
0j
0d
#2320000
b10010001 #
1_
1`
0p
1j
#2336000
b10010011 #
b10010010 #
1]
0_
0a
0j
0`
1p
1h
1a
1j
0h
#2352000
b10010011 #
1_
1`
0p
0a
0j
1h
#2368000
b10010111 #
b10010101 #
b10010100 #
1[
0]
0_
1b
0h
1a
1j
0`
1p
0c
0m
0b
1h
0j
1d
1c
1m
0d
#2384000
b10010101 #
1_
1`
0p
1j
#2400000
b10010111 #
b10010110 #
1]
0_
0a
0j
0`
1p
1b
0h
1a
1j
0c
0m
0b
1h
1d
1c
1m
0d
#2416000
b10010111 #
1_
1`
0p
0a
0j
1b
0h
0c
0m
1d
#2432000
b10011111 #
b10011011 #
b10011001 #
b10011000 #
1Z
0[
0]
0_
1m
0b
1h
1a
1j
0`
1p
0m
0h
0j
#2448000
b10011001 #
1_
1`
0p
1j
#2464000
b10011011 #
b10011010 #
1]
0_
0a
0j
0`
1p
1h
1a
1j
0h
#2480000
b10011011 #
1_
1`
0p
0a
0j
1h
#2496000
b10011111 #
b10011101 #
b10011100 #
1[
0]
0_
1b
0h
1a
1j
0`
1p
1m
0b
1h
0j
0m
#2512000
b10011101 #
1_
1`
0p
1j
#2528000
b10011111 #
b10011110 #
1]
0_
0a
0j
0`
1p
1b
0h
1a
1j
1m
0b
1h
0m
#2544000
b10011111 #
1_
1`
0p
0a
0j
1b
0h
1m
#2560000
b10111111 #
b10101111 #
b10100111 #
b10100011 #
b10100001 #
b10100000 #
1W
0^
0Z
0[
0]
0_
0`
0m
0b
1h
1a
1j
1c
1m
0h
0d
#2576000
b10100001 #
1_
1p
#2592000
b10100011 #
b10100010 #
1]
0_
1D!
0a
0j
0p
1h
#2608000
b10100011 #
1_
1p
#2624000
b10100111 #
b10100101 #
b10100100 #
1[
0]
0_
1b
0h
0D!
1a
1j
0p
0c
0m
0b
1h
1d
1c
1m
0d
#2640000
b10100101 #
1_
1p
#2656000
b10100111 #
b10100110 #
1]
0_
1D!
0a
0j
0p
1b
0h
0c
0m
1d
#2672000
b10100111 #
1_
1p
#2688000
b10101111 #
b10101011 #
b10101001 #
b10101000 #
1Z
0[
0]
0_
1m
0b
1h
0D!
1a
1j
0p
0m
0h
#2704000
b10101001 #
1_
1p
#2720000
b10101011 #
b10101010 #
1]
0_
1D!
0a
0j
0p
1h
#2736000
b10101011 #
1_
1p
#2752000
b10101111 #
b10101101 #
b10101100 #
1[
0]
0_
1b
0h
0D!
1a
1j
0p
1m
0b
1h
0m
#2768000
b10101101 #
1_
1p
#2784000
b10101111 #
b10101110 #
1]
0_
1D!
0a
0j
0p
1b
0h
1m
#2800000
b10101111 #
1_
1p
#2816000
b10111111 #
b10110111 #
b10110011 #
b10110001 #
b10110000 #
1^
0Z
0[
0]
0_
0m
0b
1h
0D!
1a
1j
1c
1m
0h
0d
#2832000
b10110001 #
1_
1`
0p
0a
0j
1h
#2848000
b10110011 #
b10110010 #
1]
0_
1D!
1j
0`
1p
0j
#2864000
b10110011 #
1_
1`
0p
1j
#2880000
b10110111 #
b10110101 #
b10110100 #
1[
0]
0_
1b
0h
0D!
0j
0`
1p
0c
0m
1a
1j
1d
0b
1h
1c
1m
0d
#2896000
b10110101 #
1_
1`
0p
0a
0j
1b
0h
0c
0m
1d
#2912000
b10110111 #
b10110110 #
1]
0_
1D!
1j
0`
1p
0j
#2928000
b10110111 #
1_
1`
0p
1j
#2944000
b10111111 #
b10111011 #
b10111001 #
b10111000 #
1Z
0[
0]
0_
1m
0b
1h
0D!
0j
0`
1p
0m
1a
1j
0h
#2960000
b10111001 #
1_
1`
0p
0a
0j
1h
#2976000
b10111011 #
b10111010 #
1]
0_
1D!
1j
0`
1p
0j
#2992000
b10111011 #
1_
1`
0p
1j
#3008000
b10111111 #
b10111101 #
b10111100 #
1[
0]
0_
1b
0h
0D!
0j
0`
1p
1m
1a
1j
0b
1h
0m
#3024000
b10111101 #
1_
1`
0p
0a
0j
1b
0h
1m
#3040000
b10111111 #
b10111110 #
1]
0_
1D!
1j
0`
1p
0j
#3056000
b10111111 #
1_
1`
0p
1j
#3072000
b11111111 #
b11011111 #
b11001111 #
b11000111 #
b11000011 #
b11000001 #
b11000000 #
1\
0W
0^
0Z
0[
0]
0_
0D!
1a
0`
0m
0b
1h
0j
1c
1m
0d
#3088000
b11000001 #
1_
1p
#3104000
b11000011 #
b11000010 #
1]
0_
1j
0p
#3120000
b11000011 #
1_
1p
#3136000
b11000111 #
b11000101 #
b11000100 #
1[
0]
0_
1I!
1b
0h
0j
0p
0c
0m
1d
#3152000
b11000101 #
1_
1p
#3168000
b11000111 #
b11000110 #
1]
0_
1j
0p
#3184000
b11000111 #
1_
1p
#3200000
b11001111 #
b11001011 #
b11001001 #
b11001000 #
1Z
0[
0]
0_
1m
0I!
0b
1h
0j
0p
0m
#3216000
b11001001 #
1_
1p
#3232000
b11001011 #
b11001010 #
1]
0_
1j
0p
#3248000
b11001011 #
1_
1p
#3264000
b11001111 #
b11001101 #
b11001100 #
1[
0]
0_
1I!
1b
0h
0j
0p
1m
#3280000
b11001101 #
1_
1p
#3296000
b11001111 #
b11001110 #
1]
0_
1j
0p
#3312000
b11001111 #
1_
1p
#3328000
b11011111 #
b11010111 #
b11010011 #
b11010001 #
b11010000 #
1^
0Z
0[
0]
0_
0m
0I!
0b
1h
0j
1c
1m
0d
#3344000
b11010001 #
1_
1`
0p
1j
#3360000
b11010011 #
b11010010 #
1]
0_
0a
0j
0`
1p
1b
0h
1a
1j
0c
0m
0b
1h
1d
1c
1m
0d
#3376000
b11010011 #
1_
1`
0p
0a
0j
1b
0h
0c
0m
1d
#3392000
b11010111 #
b11010101 #
b11010100 #
1[
0]
0_
1I!
1h
1a
1j
0`
1p
0h
0j
#3408000
b11010101 #
1_
1`
0p
1j
#3424000
b11010111 #
b11010110 #
1]
0_
0a
0j
0`
1p
1h
1a
1j
0h
#3440000
b11010111 #
1_
1`
0p
0a
0j
1h
#3456000
b11011111 #
b11011011 #
b11011001 #
b11011000 #
1Z
0[
0]
0_
1m
0I!
0h
1a
1j
0`
1p
0b
1h
0j
0m
#3472000
b11011001 #
1_
1`
0p
1j
#3488000
b11011011 #
b11011010 #
1]
0_
0a
0j
0`
1p
1b
0h
1a
1j
1m
0b
1h
0m
#3504000
b11011011 #
1_
1`
0p
0a
0j
1b
0h
1m
