Lab3/simulation/qsim/LogicalStep_Lab3.msim.vcd
$comment
	File created using the following command:
		vcd file LogicalStep_Lab3.msim.vcd -direction
$end
$date
	Tue Mar 10 15:04:13 2020
$end
$version
	ModelSim Version 10.4b
$end
$timescale
	1ps
$end

$scope module LogicalStep_Lab3_top_vlg_vec_tst $end
$var reg 1 ! clkin_50 $end
$var reg 4 " pb [3:0] $end
$var reg 8 # sw [7:0] $end
$var wire 1 $ leds [7] $end
$var wire 1 % leds [6] $end
$var wire 1 & leds [5] $end
$var wire 1 ' leds [4] $end
$var wire 1 ( leds [3] $end
$var wire 1 ) leds [2] $end
$var wire 1 * leds [1] $end
$var wire 1 + leds [0] $end
$var wire 1 , seg7_char1 $end
$var wire 1 - seg7_char2 $end
$var wire 1 . seg7_data [6] $end
$var wire 1 / seg7_data [5] $end
$var wire 1 0 seg7_data [4] $end
$var wire 1 1 seg7_data [3] $end
$var wire 1 2 seg7_data [2] $end
$var wire 1 3 seg7_data [1] $end
$var wire 1 4 seg7_data [0] $end

$scope module i1 $end
$var wire 1 5 gnd $end
$var wire 1 6 vcc $end
$var wire 1 7 unknown $end
$var tri1 1 8 devclrn $end
$var tri1 1 9 devpor $end
$var tri1 1 : devoe $end
$var wire 1 ; ~QUARTUS_CREATED_GND~I_combout $end
$var wire 1 < ~QUARTUS_CREATED_UNVM~~busy $end
$var wire 1 = ~QUARTUS_CREATED_ADC1~~eoc $end
$var wire 1 > seg7_data[1]~output_o $end
$var wire 1 ? seg7_data[5]~output_o $end
$var wire 1 @ seg7_data[6]~output_o $end
$var wire 1 A leds[0]~output_o $end
$var wire 1 B leds[1]~output_o $end
$var wire 1 C leds[2]~output_o $end
$var wire 1 D leds[3]~output_o $end
$var wire 1 E leds[4]~output_o $end
$var wire 1 F leds[5]~output_o $end
$var wire 1 G leds[6]~output_o $end
$var wire 1 H leds[7]~output_o $end
$var wire 1 I seg7_data[0]~output_o $end
$var wire 1 J seg7_data[2]~output_o $end
$var wire 1 K seg7_data[3]~output_o $end
$var wire 1 L seg7_data[4]~output_o $end
$var wire 1 M seg7_char1~output_o $end
$var wire 1 N seg7_char2~output_o $end
$var wire 1 O sw[7]~input_o $end
$var wire 1 P pb[3]~input_o $end
$var wire 1 Q INST8|Target_Temp[3]~0_combout $end
$var wire 1 R sw[4]~input_o $end
$var wire 1 S INST8|Target_Temp[0]~3_combout $end
$var wire 1 T sw[5]~input_o $end
$var wire 1 U INST8|Target_Temp[1]~2_combout $end
$var wire 1 V sw[6]~input_o $end
$var wire 1 W INST8|Target_Temp[2]~1_combout $end
$var wire 1 X INST6|Mux5~0_combout $end
$var wire 1 Y clkin_50~input_o $end
$var wire 1 Z clkin_50~inputclkctrl_outclk $end
$var wire 1 [ INST7|clk_proc:COUNT[0]~0_combout $end
$var wire 1 \ INST7|clk_proc:COUNT[0]~q $end
$var wire 1 ] INST7|clk_proc:COUNT[1]~1_combout $end
$var wire 1 ^ INST7|clk_proc:COUNT[1]~q $end
$var wire 1 _ INST7|clk_proc:COUNT[1]~2 $end
$var wire 1 ` INST7|clk_proc:COUNT[2]~1_combout $end
$var wire 1 a INST7|clk_proc:COUNT[2]~q $end
$var wire 1 b INST7|clk_proc:COUNT[2]~2 $end
$var wire 1 c INST7|clk_proc:COUNT[3]~1_combout $end
$var wire 1 d INST7|clk_proc:COUNT[3]~q $end
$var wire 1 e INST7|clk_proc:COUNT[3]~2 $end
$var wire 1 f INST7|clk_proc:COUNT[4]~1_combout $end
$var wire 1 g INST7|clk_proc:COUNT[4]~q $end
$var wire 1 h INST7|clk_proc:COUNT[4]~2 $end
$var wire 1 i INST7|clk_proc:COUNT[5]~1_combout $end
$var wire 1 j INST7|clk_proc:COUNT[5]~q $end
$var wire 1 k INST7|clk_proc:COUNT[5]~2 $end
$var wire 1 l INST7|clk_proc:COUNT[6]~1_combout $end
$var wire 1 m INST7|clk_proc:COUNT[6]~q $end
$var wire 1 n INST7|clk_proc:COUNT[6]~2 $end
$var wire 1 o INST7|clk_proc:COUNT[7]~1_combout $end
$var wire 1 p INST7|clk_proc:COUNT[7]~q $end
$var wire 1 q INST7|clk_proc:COUNT[7]~2 $end
$var wire 1 r INST7|clk_proc:COUNT[8]~1_combout $end
$var wire 1 s INST7|clk_proc:COUNT[8]~q $end
$var wire 1 t INST7|clk_proc:COUNT[8]~2 $end
$var wire 1 u INST7|clk_proc:COUNT[9]~1_combout $end
$var wire 1 v INST7|clk_proc:COUNT[9]~q $end
$var wire 1 w INST7|clk_proc:COUNT[9]~2 $end
$var wire 1 x INST7|clk_proc:COUNT[10]~1_combout $end
$var wire 1 y INST7|clk_proc:COUNT[10]~q $end
$var wire 1 z sw[1]~input_o $end
$var wire 1 { sw[2]~input_o $end
$var wire 1 | sw[0]~input_o $end
$var wire 1 } sw[3]~input_o $end
$var wire 1 ~ INST5|Mux5~0_combout $end
$var wire 1 !! INST7|DOUT_TEMP[1]~0_combout $end
$var wire 1 "! INST6|Mux1~0_combout $end
$var wire 1 #! INST5|Mux1~0_combout $end
$var wire 1 $! INST7|DOUT_TEMP[5]~1_combout $end
$var wire 1 %! INST6|Mux0~0_combout $end
$var wire 1 &! INST5|Mux0~0_combout $end
$var wire 1 '! INST7|DOUT_TEMP[6]~2_combout $end
$var wire 1 (! pb[1]~input_o $end
$var wire 1 )! pb[0]~input_o $end
$var wire 1 *! INST1|comparisons[0]~0_combout $end
$var wire 1 +! INST1|comparisons[0]~1_combout $end
$var wire 1 ,! INST1|comparisons[0]~2_combout $end
$var wire 1 -! INST1|comparisons[0]~3_combout $end
$var wire 1 .! FURNACE_ON~0_combout $end
$var wire 1 /! INST1|INST1|comparisons~0_combout $end
$var wire 1 0! INST1|comparisons[1]~4_combout $end
$var wire 1 1! INST1|comparisons[2]~5_combout $end
$var wire 1 2! INST1|comparisons[2]~6_combout $end
$var wire 1 3! INST1|comparisons[2]~7_combout $end
$var wire 1 4! AC_ON~0_combout $end
$var wire 1 5! BLOWER_ON~0_combout $end
$var wire 1 6! TEST_PASS~0_combout $end
$var wire 1 7! TEST_PASS~1_combout $end
$var wire 1 8! TEST_PASS~2_combout $end
$var wire 1 9! TEST_PASS~3_combout $end
$var wire 1 :! TEST_PASS~4_combout $end
$var wire 1 ;! TEST_PASS~5_combout $end
$var wire 1 <! TEST_PASS~6_combout $end
$var wire 1 =! TEST_PASS~7_combout $end
$var wire 1 >! TEST_PASS~8_combout $end
$var wire 1 ?! pb[2]~input_o $end
$var wire 1 @! TEST_PASS~9_combout $end
$var wire 1 A! INST5|Mux6~0_combout $end
$var wire 1 B! INST6|Mux6~0_combout $end
$var wire 1 C! INST7|DOUT[0]~0_combout $end
$var wire 1 D! INST6|Mux4~0_combout $end
$var wire 1 E! INST5|Mux4~0_combout $end
$var wire 1 F! INST7|DOUT[2]~2_combout $end
$var wire 1 G! INST5|Mux3~0_combout $end
$var wire 1 H! INST6|Mux3~0_combout $end
$var wire 1 I! INST7|DOUT[3]~3_combout $end
$var wire 1 J! INST5|Mux2~0_combout $end
$var wire 1 K! INST6|Mux2~0_combout $end
$var wire 1 L! INST7|DOUT[4]~4_combout $end
$upscope $end
$upscope $end
$enddefinitions $end
#0
$dumpvars
x!
b1111 "
b1000 #
0+
0*
1)
1(
0'
0&
0%
0$
1,
0-
14
z3
12
11
10
z/
0.
05
16
x7
18
19
1:
0;
z<
z=
z>
z?
0@
0A
0B
1C
1D
0E
0F
0G
0H
1I
1J
1K
1L
1M
0N
0O
1P
0Q
0R
0S
0T
0U
0V
0W
0X
xY
xZ
1[
0\
0]
0^
0_
0`
0a
1b
0c
0d
0e
0f
0g
1h
0i
0j
0k
0l
0m
1n
0o
0p
0q
0r
0s
1t
0u
0v
0w
0x
0y
0z
0{
0|
1}
0~
1!!
0"!
0#!
1$!
0%!
1&!
0'!
1(!
1)!
0*!
0+!
0,!
0-!
0.!
0/!
10!
11!
02!
13!
14!
15!
06!
07!
18!
09!
1:!
1;!
0<!
0=!
0>!
1?!
0@!
0A!
0B!
0C!
0D!
0E!
0F!
0G!
0H!
0I!
0J!
0K!
0L!
$end
#50000
b11000 #
1R
1<!
0:!
1/!
1S
1=!
1K!
1H!
1B!
1+!
1"!
1L!
1I!
1C!
0$!
0?
0I
0K
0L
00
01
04
0/
#100000
b111000 #
b101000 #
1T
0R
1U
0/!
0S
0K!
0H!
1D!
0B!
1%!
0L!
0I!
1F!
0C!
1'!
z@
1I
0J
1K
1L
10
11
02
14
z.
#150000
b111000 #
1R
1/!
1S
1K!
0D!
1L!
0F!
1J
0L
00
12
#200000
b1111000 #
b1011000 #
b1001000 #
1V
0T
0R
1W
0<!
1:!
0U
0/!
0S
1H!
1B!
0"!
0+!
1I!
1C!
1$!
z?
0I
0K
01
04
z/
#250000
b1011000 #
1R
1<!
0:!
1/!
1S
0H!
0B!
1+!
1X
0I!
0C!
0!!
0>
1I
1K
11
14
03
#300000
b1111000 #
b1101000 #
1T
0R
1U
0/!
0S
0K!
0L!
1L
10
#350000
b1111000 #
1R
1/!
1S
1K!
1H!
0%!
1"!
0X
1L!
1I!
0'!
0$!
1!!
z>
0?
0@
0K
0L
00
01
0.
0/
z3
#400000
b11111000 #
b10111000 #
b10011000 #
b10001000 #
1O
0V
0T
0R
1>!
19!
08!
1Q
0W
0<!
1:!
0U
0/!
0S
0;!
0K!
0H!
01!
1,!
1%!
0"!
0=!
0+!
0L!
0I!
03!
00!
0>!
1'!
1$!
z?
z@
1B
1K
1L
1;!
10
11
1*
z.
z/
05!
04!
0C
0D
0(
0)
#450000
b10011000 #
1R
1<!
0:!
1/!
1S
1=!
0;!
10!
1K!
1+!
0B
1>!
1L!
1-!
0*
0L
00
15!
1.!
1A
1D
1(
1+
#500000
b10111000 #
b10101000 #
1T
0R
1U
0/!
0S
0K!
1H!
0L!
1I!
0K
1L
10
01
#550000
b10111000 #
1R
1/!
1S
0H!
1B!
1X
0I!
1C!
0!!
0>
0I
1K
11
04
03
#600000
b11111000 #
b11011000 #
b11001000 #
1V
0T
0R
09!
1W
0<!
1:!
0U
0/!
0S
1D!
0,!
1*!
1"!
00!
0+!
1B
1F!
10!
1*
0$!
0?
0B
0J
02
0*
0/
#650000
b11011000 #
1R
1<!
0:!
1/!
1S
0D!
1+!
0X
0F!
1!!
z>
1J
12
z3
#700000
b11111000 #
b11101000 #
1T
0R
1U
0/!
0S
1D!
0B!
0"!
1X
1F!
0C!
1$!
0!!
0>
z?
1I
0J
02
14
z/
03
#750000
b11111000 #
1R
1/!
1S
1H!
1I!
0K
01
#800000
b1111000 #
b111000 #
b11000 #
b1000 #
0O
0V
0T
0R
0>!
0Q
0W
0<!
1:!
0U
0/!
0S
0H!
0D!
11!
0*!
0%!
0X
0=!
0+!
0I!
0F!
13!
0-!
0'!
1!!
z>
0@
1J
1K
18!
11
12
0.
z3
14!
0.!
0A
1C
1;!
1)
0+
#850000
b11000 #
1R
1<!
0:!
1/!
1S
1=!
1K!
1H!
1B!
1+!
1"!
1L!
1I!
1C!
0$!
0?
0I
0K
0L
00
01
04
0/
#900000
b111000 #
b101000 #
1T
0R
1U
0/!
0S
0K!
0H!
1D!
0B!
1%!
0L!
0I!
1F!
0C!
1'!
z@
1I
0J
1K
1L
10
11
02
14
z.
#950000
b111000 #
1R
1/!
1S
1K!
0D!
1L!
0F!
1J
0L
00
12
